[
  {
    "sidebar-1":[
      "coupon_detail-2",
      "coupon_listings-2",
      "listing_author-2",
      "listing_details-2",
      "opening_hours-2",
      "listing_inquire-2",
      "text-7",
      "filter-4",
      "listings-3"
    ],
    "dashboard-top":[
      "text-5"
    ],
    "dashboard-bottom":[
      "packages-2"
    ],
    "header-topbar-left":[
      "text-6",
      "text-8"
    ],
    "header-topbar-right":[
      "nav_menu-5",
      "nav_menu-4"
    ],
    "top-fullwidth":[
      "google-map-2",
      "google-map-3",
      "google-map-4",
      "listing_slider-2",
      "video_cover-3",
      "video_cover-2"
    ],
    "top":[
      "partners-3",
      "listings-2",
      "boxes-3",
      "listings-4",
      "listing_categories-2",
      "testimonials-3",
      "pricing-2"
    ],
    "content-top":[
      "simple_map-3",
      "boxes-2",
      "filter-3",
      "text-11"
    ],
    "bottom":[
      "call_to_action-2"
    ],
    "footer-top-first":[
      "boxes-4"
    ],
    "footer-top-second":[
      "listings-5"
    ],
    "footer-top-third":[
      "text-9"
    ],
    "footer-top-fourth":[
      "text-10"
    ],
    "footer-first":[
      "nav_menu-3"
    ],
    "footer-second":[
      "search-2"
    ],
    "footer-bottom-first":[
      "text-4"
    ],
    "footer-bottom-second":[
      "nav_menu-2"
    ]
  },
  {
    "coupon_detail":{
      "2":{
        "title":""
      },
      "_multiwidget":1
    },
    "coupon_listings":{
      "2":{
        "title":"Recent Coupons",
        "count":"3"
      },
      "_multiwidget":1
    },
    "listing_author":{
      "2":{
        "title":"",
        "background_color":"",
        "background_image":"",
        "classes":""
      },
      "_multiwidget":1
    },
    "listing_details":{
      "2":{
        "title":"",
        "background_color":"",
        "background_image":"",
        "classes":""
      },
      "_multiwidget":1
    },
    "opening_hours":{
      "2":{
        "title":"",
        "background_color":"",
        "background_image":"",
        "classes":""
      },
      "_multiwidget":1
    },
    "listing_inquire":{
      "2":{
        "title":"Inquire Form",
        "show_name":"on",
        "show_email":"on",
        "show_subject":"on",
        "show_date":"on",
        "show_message":"on",
        "receive_admin":"on",
        "receive_author":"on",
        "background_color":"",
        "background_image":"",
        "classes":""
      },
      "_multiwidget":1
    },
    "text":{
      "7":{
        "title":"Leave Us Message",
        "text":"[contact-form-7 id=\"556\" title=\"Contact Form\"]",
        "filter":false
      },
      "5":{
        "title":"Progress",
        "text":"[inventor_submission_steps]",
        "filter":false
      },
      "6":{
        "title":"",
        "text":"<i class=\"fa fa-star-o\"><\/i> Superlist - Directory WordPress Theme",
        "filter":false
      },
      "8":{
        "title":"",
        "text":"[inventor_currencies]",
        "filter":false
      },
      "11":{
        "title":"",
        "text":"<div class=\"center\" style=\"margin-bottom:60px\"><a target=\"_blank\" href=\"http:\/\/themeforest.net\/item\/profession-job-template\/12944013?ref=aviators\"><img src=\"http:\/\/preview.byaviators.com\/theme\/superlist\/wp-content\/uploads\/2015\/10\/banner-728x90.png\" alt=\"\"><\/a><\/div>",
        "filter":false
      },
      "9":{
        "title":"Contact Information",
        "text":"Lorem ipsum dolor sit amet, consectetuer adipiscing elit, sed diam nonum.  \r\n<dl>\r\n<dt><i class=\"fa fa-map\"><\/i> 795 South Park Avenue<\/dt><dd>Melbourne, Australia<\/dd>\r\n<dt><i class=\"fa fa-phone\"><\/i> +440 875369208<\/dt><dd>support@sitename.com<\/dd>\r\n<dt><i class=\"fa fa-clock-o\"><\/i> Monday - Friday<\/dt><dd>9:00 - 17:00<\/dd>\r\n<\/dl>",
        "filter":false
      },
      "10":{
        "title":"Contact Form",
        "text":"[contact-form-7 id=\"709\"]",
        "filter":false
      },
      "4":{
        "title":"",
        "text":"&copy; 2015 All rights reserved. Created by <a href=\"http:\/\/themeforest.net\/user\/aviators\/portfolio\">Aviators<\/a>.",
        "filter":false
      },
      "_multiwidget":1
    },
    "filter":{
      "4":{
        "title":"Filter",
        "button_text":"Filter",
        "input_titles":"labels",
        "sort":",title,description,keyword,distance,price,rating,geolocation,locations,listing_categories,featured,reduced",
        "hide_keyword":"on",
        "hide_distance":"on",
        "hide_geolocation":"on",
        "hide_locations":"on",
        "hide_listing_categories":"on",
        "background_color":"",
        "background_image":"",
        "classes":""
      },
      "3":{
        "title":"",
        "button_text":"Filter",
        "sorting_options":"on",
        "input_titles":"placeholders",
        "result_numbers_enabled":"1",
        "result_numbers_total":"1",
        "sort":"",
        "hide_title":"on",
        "hide_description":"on",
        "hide_distance":"on",
        "hide_price":"on",
        "hide_geolocation":"on",
        "hide_featured":"on",
        "hide_reduced":"on",
        "hide_rating":"on",
        "background_color":"",
        "background_image":"",
        "padding_bottom":"1",
        "classes":""
      },
      "_multiwidget":1
    },
    "listings":{
      "3":{
        "title":"Recent Listings",
        "description":"",
        "count":"5",
        "ids":"",
        "per_row":"1",
        "order":"on",
        "attribute":"on",
        "display":"small",
        "background_color":"",
        "background_image":"",
        "classes":""
      },
      "2":{
        "title":"Featured Listings",
        "description":"List of most interesting listings in our directory submitted by our users. <br>\r\nCheck whats going on in the city now.",
        "count":"8",
        "ids":"",
        "per_row":"4",
        "order":"rand",
        "attribute":"featured",
        "display":"box",
        "background_color":"",
        "background_image":"",
        "padding_top":"1",
        "padding_bottom":"1",
        "classes":""
      },
      "4":{
        "title":"Hand Picked by Superlist",
        "description":"Check out the best places & events in the city. Each one is worth of visiting. Experience which you never forget.",
        "count":"4",
        "per_row":"1",
        "order":"ids",
        "attribute":"on",
        "display":"masonry",
        "background_color":"",
        "background_image":"http:\/\/preview.byaviators.com\/theme\/superlist\/wp-content\/uploads\/2015\/10\/widget-background.jpg",
        "padding_top":"1",
        "padding_bottom":"1",
        "classes":""
      },
      "5":{
        "title":"Recent Listings",
        "description":"",
        "count":"4",
        "ids":"",
        "per_row":"1",
        "order":"on",
        "attribute":"on",
        "display":"small",
        "background_color":"",
        "background_image":"",
        "classes":""
      },
      "_multiwidget":1
    },
    "packages":{
      "2":{
        "title":"Packages"
      },
      "_multiwidget":1
    },
    "nav_menu":{
      "5":{
        "nav_menu":"header-topbar-anonymous"
      },
      "4":{
        "nav_menu":"header-topbar-authenticated"
      },
      "3":{
        "nav_menu":"footer-menu"
      },
      "2":{
        "nav_menu":"main-menu"
      },
      "_multiwidget":1
    },
    "google-map":{
      "2":{
        "title":"Front Page",
        "latitude":"40.716775",
        "longitude":"-73.997580",
        "max_pins":"",
        "zoom":"11",
        "grid_size":"50",
        "height":"500px",
        "button_text":"Filter Now",
        "style":"superlist",
        "filter":"on",
        "live_filtering":"on",
        "toggle_default":"open",
        "map_types":"on",
        "map_zoom":"on",
        "map_geolocation":"on",
        "marker_style":"inventor-poi",
        "input_titles":"placeholders",
        "orderby":"rand",
        "sort":",geolocation,distance,keyword,listing_categories,title,description,price,featured,reduced,rating,locations",
        "hide_title":"on",
        "hide_description":"on",
        "hide_price":"on",
        "hide_featured":"on",
        "hide_reduced":"on",
        "hide_rating":"on",
        "hide_locations":"on"
      },
      "3":{
        "title":"Listing Post Types",
        "latitude":"40.716775",
        "longitude":"-73.997580",
        "max_pins":"",
        "zoom":"12",
        "grid_size":"60",
        "height":"320px",
        "button_text":"",
        "style":"superlist",
        "show_all_markers":"on",
        "show_toggle":"on",
        "toggle_default":"open",
        "intercept_filter":"on",
        "intercept_post_type":"on",
        "map_types":"on",
        "map_zoom":"on",
        "map_geolocation":"on",
        "marker_style":"simple",
        "input_titles":"labels",
        "orderby":"on",
        "sort":"",
        "hide_location":"on",
        "hide_category":"on"
      },
      "4":{
        "title":"Taxonomy & Abstract Listing",
        "latitude":"40.716775",
        "longitude":"-73.997580",
        "max_pins":"",
        "zoom":"12",
        "grid_size":"60",
        "height":"320px",
        "button_text":"",
        "style":"superlist",
        "show_all_markers":"on",
        "show_toggle":"on",
        "toggle_default":"open",
        "intercept_filter":"on",
        "intercept_term":"on",
        "map_types":"on",
        "map_zoom":"on",
        "map_geolocation":"on",
        "marker_style":"inventor-poi",
        "input_titles":"labels",
        "orderby":"on",
        "sort":"",
        "hide_location":"on",
        "hide_category":"on"
      },
      "_multiwidget":1
    },
    "listing_slider":{
      "2":{
        "ids":"591,587, 576",
        "classes":"header-transparent, listing-slider-append-top, header-disable-topbar",
        "height":"800px",
        "fullscreen":"on",
        "size":"thumbnail",
        "show_arrows":"on",
        "autoplay_timeout":""
      },
      "_multiwidget":1
    },
    "video_cover":{
      "3":{
        "title":"Directory WordPress Theme",
        "subtitle":"Quisque efficitur mauris nec placerat pulvinar. Nam vel magna orci. Vestibulum pretium posuere diam",
        "height":"700px",
        "poster":"http:\/\/preview.byaviators.com\/theme\/superlist\/wp-content\/uploads\/2015\/10\/restaurant.jpg",
        "overlay_opacity":"0.5",
        "video_mp4":"",
        "video_ogg":"",
        "filter":"on",
        "button_text":"Filter Listings",
        "input_titles":"placeholders",
        "sort":"<br \/>\r\n<b>Notice<\/b>:  Undefined variable: sort in <b>\/home\/superlist\/public_html\/superlist_wp\/wp-content\/plugins\/inventor\/templates\/widgets\/filter-fields.php<\/b> on line <b>14<\/b><br \/>\r\n",
        "hide_title":"on",
        "hide_description":"on",
        "hide_keyword":"on",
        "hide_distance":"on",
        "hide_price":"on",
        "hide_geolocation":"on",
        "hide_featured":"on",
        "hide_reduced":"on",
        "hide_rating":"on"
      },
      "2":{
        "title":"Directory WordPress Theme",
        "subtitle":"Quisque efficitur mauris nec placerat pulvinar. Nam vel magna orci. Vestibulum pretium posuere diam",
        "height":"700px",
        "poster":"http:\/\/preview.byaviators.com\/theme\/superlist\/wp-content\/uploads\/2015\/10\/video-cover.jpg",
        "overlay_opacity":"0.4",
        "video_mp4":"http:\/\/preview.byaviators.com\/theme\/superlist\/wp-content\/uploads\/2015\/10\/video.mp4",
        "video_ogg":"",
        "filter":"on",
        "button_text":"Filter Listings",
        "input_titles":"placeholders",
        "sort":"<br \/>\r\n<b>Notice<\/b>:  Undefined variable: sort in <b>\/home\/superlist\/public_html\/superlist_wp\/wp-content\/plugins\/inventor\/templates\/widgets\/filter-fields.php<\/b> on line <b>14<\/b><br \/>\r\n",
        "hide_title":"on",
        "hide_description":"on",
        "hide_keyword":"on",
        "hide_distance":"on",
        "hide_price":"on",
        "hide_geolocation":"on",
        "hide_featured":"on",
        "hide_reduced":"on",
        "hide_rating":"on"
      },
      "_multiwidget":1
    },
    "partners":{
      "3":{
        "title":"",
        "description":"",
        "count":"5",
        "ids":"529, 532, 880, 882, 888",
        "per_row":"5",
        "background_color":"",
        "background_image":"",
        "padding_top":"1",
        "padding_bottom":"1",
        "classes":"background-white"
      },
      "_multiwidget":1
    },
    "boxes":{
      "3":{
        "title":"",
        "description":"",
        "title_1":"Email Support",
        "content_1":"We are always here to answer all your questions. Feel free to contact us.",
        "icon_1":"fa-life-ring",
        "link_1":"#",
        "title_2":"Always Improving",
        "content_2":"Our dedicated team of developers are implementing awesome features.",
        "icon_2":"fa-flask",
        "link_2":"#",
        "title_3":"Best Quality",
        "content_3":"We list only verifiend places and events to provide best content.",
        "icon_3":"fa-thumbs-up",
        "link_3":"#",
        "background_color":"",
        "background_image":"",
        "padding_top":"1",
        "padding_bottom":"1",
        "classes":"background-gray"
      },
      "2":{
        "title":"",
        "description":"",
        "title_1":"Address",
        "content_1":"13\/2 Elizabeth Street,<br>\r\nMelbourne, Australia",
        "icon_1":"fa-map",
        "link_1":"",
        "title_2":"Phone",
        "content_2":"1800-3322-4453<br>\r\n1900-CO-WORKER",
        "icon_2":"fa-phone",
        "link_2":"",
        "title_3":"Social Profiles",
        "content_3":"<a href=\"#\" class=\"fa fa-facebook\"><\/a>\r\n<a href=\"#\" class=\"fa fa-youtube-play\"><\/a>\r\n<a href=\"#\" class=\"fa fa-twitter\"><\/a>\r\n<a href=\"#\" class=\"fa fa-google-plus\"><\/a>",
        "icon_3":"fa-globe",
        "link_3":"",
        "background_color":"",
        "background_image":"",
        "padding_top":"1",
        "padding_bottom":"1",
        "classes":""
      },
      "4":{
        "title":"Theme Features",
        "description":"",
        "title_1":"Top Noch Directory",
        "content_1":"Sed tempus nisl ac pretium tempor. Nulla ut est ",
        "icon_1":"fa-star",
        "link_1":"",
        "title_2":"Responsive",
        "content_2":"Sed tempus nisl ac pretium tempor. Nulla ut est ",
        "icon_2":"fa-mobile",
        "link_2":"",
        "title_3":"Perfect Code",
        "content_3":"Sed tempus nisl ac pretium tempor. Nulla ut est ",
        "icon_3":"fa-flask",
        "link_3":"",
        "background_color":"",
        "background_image":"",
        "classes":""
      },
      "_multiwidget":1
    },
    "listing_categories":{
      "2":{
        "title":"Directory Categories",
        "description":"Check the list of all categories and subcategories available for our items in directory application. All these pages are created automatically by WordPress itself.",
        "background_color":"",
        "background_image":"",
        "padding_top":"1",
        "padding_bottom":"1",
        "classes":""
      },
      "_multiwidget":1
    },
    "testimonials":{
      "3":{
        "title":"Testimonials",
        "description":"Read what our customers says about our directory services and products.",
        "background_color":"#ffffff",
        "background_image":"",
        "padding_top":"1",
        "padding_bottom":"1",
        "classes":""
      },
      "_multiwidget":1
    },
    "pricing":{
      "2":{
        "title":"Fair Pricing",
        "description":"Our company offers best pricing options for field agents and companies. If you are interested \r\nin special plan don't hesitate and contact our sales support.",
        "per_row":"3",
        "background_color":"",
        "background_image":"",
        "padding_top":"1",
        "padding_bottom":"1",
        "classes":""
      },
      "_multiwidget":1
    },
    "simple_map":{
      "3":{
        "latitude":"48.861448",
        "longitude":"2.334107",
        "zoom":"15",
        "height":"350",
        "style":"superlist",
        "background_color":"",
        "background_image":"",
        "classes":""
      },
      "_multiwidget":1
    },
    "call_to_action":{
      "2":{
        "text":"<i class=\"superlist-logo\"><\/i> <span>Directory WordPress Theme<\/span><strong>Advanced WordPress Listings & Directory Application<\/strong>",
        "button_text":"Purchase at ThemeForest",
        "button_link":"http:\/\/themeforest.net\/user\/aviators?ref=aviators",
        "background_color":"",
        "background_image":"",
        "padding_top":"1",
        "padding_bottom":"1",
        "classes":"background-white"
      },
      "_multiwidget":1
    },
    "search":{
      "2":{
        "title":""
      },
      "_multiwidget":1
    }
  }
]